{
  "BurstVersion": "12fd8c57-ac57-41e8-88f3-e2a61ac3563b",
  "Assemblies": [
    {
      "FullName": "Unity.Burst, Version=0.0.0.0, Culture=neutral, PublicKeyToken=null",
      "LastWriteTime": "2022-01-15T14:53:41.4308008Z"
    },
    {
      "FullName": "mscorlib, Version=4.0.0.0, Culture=neutral, PublicKeyToken=b77a5c561934e089",
      "LastWriteTime": "2020-09-02T17:23:08Z"
    },
    {
      "FullName": "UnityEngine.AnimationModule, Version=0.0.0.0, Culture=neutral, PublicKeyToken=null",
      "LastWriteTime": "2020-09-02T17:28:10Z"
    },
    {
      "FullName": "Unity.Animation.Rigging, Version=0.0.0.0, Culture=neutral, PublicKeyToken=null",
      "LastWriteTime": "2022-01-15T14:53:43.3628838Z"
    },
    {
      "FullName": "mscorlib, Version=2.0.0.0, Culture=neutral, PublicKeyToken=b77a5c561934e089",
      "LastWriteTime": "2020-09-02T17:23:08Z"
    },
    {
      "FullName": "UnityEngine.CoreModule, Version=0.0.0.0, Culture=neutral, PublicKeyToken=null",
      "LastWriteTime": "2020-09-02T17:28:06Z"
    },
    {
      "FullName": "Unity.Barracuda.BurstBLAS, Version=0.0.0.0, Culture=neutral, PublicKeyToken=null",
      "LastWriteTime": "2022-01-15T14:53:49.3526333Z"
    },
    {
      "FullName": "Unity.Barracuda, Version=2.0.0.0, Culture=neutral, PublicKeyToken=null",
      "LastWriteTime": "2022-01-15T14:53:48.8598541Z"
    }
  ],
  "Functions": [
    {
      "FullName": "System.Int32 Unity.Burst.Intrinsics.X86::DoGetCSRTrampoline()",
      "ModuleOptionsHash": 8794384452606821980,
      "ModuleHash": "974a8015a176289146b86ad79c3bbb6f",
      "LinkName": "CDCA4A5193BE5947",
      "AssemblyDependencyIndices": [
        0,
        1
      ]
    },
    {
      "FullName": "System.Void Unity.Burst.Intrinsics.X86::DoSetCSRTrampoline(System.Int32)",
      "ModuleOptionsHash": 8794384452606821980,
      "ModuleHash": "df41d44021d23f7b1616ed4e714d82a2",
      "LinkName": "801E9A000BB37B05",
      "AssemblyDependencyIndices": [
        0,
        1
      ]
    },
    {
      "FullName": "System.Void UnityEngine.Animations.ProcessAnimationJobStruct`1<UnityEngine.Animations.Rigging.MultiParentConstraintJob>::Execute(T&,System.IntPtr,System.IntPtr,Unity.Jobs.LowLevel.Unsafe.JobRanges&,System.Int32)",
      "ModuleOptionsHash": 8794384452606821980,
      "ModuleHash": "055a18817bf941bd3b4d1747cf6d6a48",
      "LinkName": "3F33EE8471F5D9F8",
      "AssemblyDependencyIndices": [
        2,
        3,
        4,
        5,
        1
      ]
    },
    {
      "FullName": "System.Void UnityEngine.Animations.ProcessAnimationJobStruct`1<UnityEngine.Animations.Rigging.RigSyncSceneToStreamJob>::Execute(T&,System.IntPtr,System.IntPtr,Unity.Jobs.LowLevel.Unsafe.JobRanges&,System.Int32)",
      "ModuleOptionsHash": 8794384452606821980,
      "ModuleHash": "d256b7f08acb928434d74711184b7654",
      "LinkName": "BC91ACAA17E251EE",
      "AssemblyDependencyIndices": [
        2,
        3,
        4,
        5,
        1
      ]
    },
    {
      "FullName": "System.Void Unity.Jobs.IJobParallelForExtensions/ParallelForJobStruct`1<Unity.Barracuda.UnsafeMatrixBlockMultiplyUnrolled8xhJob>::Execute(T&,System.IntPtr,System.IntPtr,Unity.Jobs.LowLevel.Unsafe.JobRanges&,System.Int32)",
      "ModuleOptionsHash": 8794384452606821980,
      "ModuleHash": "d89698d1d54a3cc3da0a052df705c1ff",
      "LinkName": "C1C6C1D457935913",
      "AssemblyDependencyIndices": [
        5,
        6,
        4,
        1,
        7
      ]
    }
  ]
}